Introduction to R for Natural Resource Scientists
…
x = rnorm(10); length(x); rm(x)

## [1] 10

The reason piping works so well with {dplyr} is because its functions are designed to take a data frame as input as the first argument and return another data frame as output. This allows you to string them together with pipes. Do a more complex pipe: take your main data frame (dat), group it by year, and pass it to a mutate() call that will add the new three columns to the entire data set:

dat = dat %>%
  group_by(year) %>%
  mutate(run = lag_sum(esc, catch), 
         crun = cumsum(run), 
         cprun = crun/sum(run, na.rm = T))

arrange(dat, year)

## # A tibble: 2,550 x 7
## # Groups:   year [50]
##      doy year     esc catch   run  crun  cprun
##    <int> <fct>  <int> <int> <dbl> <dbl>  <dbl>
##  1   160 y_1917    NA   175  265.  265. 0.0127
##  2   161 y_1917    90   221  334.  599. 0.0288
##  3   162 y_1917   113   242  366.  965. 0.0464
##  4   163 y_1917   124    90  136. 1101. 0.0530
##  5   164 y_1917    46   134  203. 1304. 0.0627
##  6   165 y_1917    69    76  115. 1419. 0.0683
##  7   166 y_1917    39    89  134. 1553. 0.0747
##  8   167 y_1917    45   139  210. 1763. 0.0848
##  9   168 y_1917    71   127  192. 1955. 0.0941
## 10   169 y_1917    65    61   92. 2047. 0.0985
## # ... with 2,540 more rows
…
